{"failedCount":1,"prefixedPath":"classpath:examples\/users\/try.feature","packageQualifiedName":"examples.users.try","loopIndex":-1,"relativePath":"examples\/users\/try.feature","scenarioResults":[{"sectionIndex":0,"stepResults":[{"result":{"nanos":1217600,"millis":1.2176,"status":"passed"},"step":{"background":true,"line":4,"prefix":"Given","index":0,"text":"url \"https:\/\/reqres.in\""},"stepLog":"15:32:57.305 karate.env system property was: null \n"},{"result":{"nanos":2110300,"millis":2.1103,"status":"passed"},"step":{"background":true,"line":5,"prefix":"And","index":1,"text":"print 'url is correct'"},"stepLog":"15:32:57.350 [print] url is correct \n"},{"result":{"nanos":796600,"millis":0.7966,"status":"passed"},"step":{"line":8,"prefix":"Given","index":0,"text":"path '\/api\/users'"}},{"result":{"nanos":5352900,"millis":5.3529,"status":"passed"},"step":{"line":9,"prefix":"And","index":1,"text":"param page = 2"}},{"result":{"nanos":666548100,"millis":666.5481,"status":"passed"},"step":{"line":10,"prefix":"When","index":2,"text":"method get"},"stepLog":"15:32:57.681 request:\n1 > GET https:\/\/reqres.in\/api\/users?page=2\n1 > Host: reqres.in\n1 > Connection: Keep-Alive\n1 > User-Agent: Apache-HttpClient\/4.5.14 (Java\/17.0.8.1)\n1 > Accept-Encoding: gzip,deflate\n\n\n15:32:57.988 response time in milliseconds: 303\n1 < 200\n1 < Date: Mon, 09 Oct 2023 08:32:56 GMT\n1 < Content-Type: application\/json; charset=utf-8\n1 < Transfer-Encoding: chunked\n1 < Connection: keep-alive\n1 < X-Powered-By: Express\n1 < Access-Control-Allow-Origin: *\n1 < Etag: W\/\"406-ut0vzoCuidvyMf8arZpMpJ6ZRDw\"\n1 < Via: 1.1 vegur\n1 < Cache-Control: max-age=14400\n1 < CF-Cache-Status: HIT\n1 < Age: 1353\n1 < Report-To: {\"endpoints\":[{\"url\":\"https:\\\/\\\/a.nel.cloudflare.com\\\/report\\\/v3?s=Aex2bkSCetLyeNnikKd94BKhwX4FkJoIWbHNzma4HBlCI0nCXp1axbf9e%2BjhpKWIaVXRRqr5TTNodIpsF%2FYjMgtJs5dEYUv3xLq0Gb822ZwFLe7IAFRaiBX3cw%3D%3D\"}],\"group\":\"cf-nel\",\"max_age\":604800}\n1 < NEL: {\"success_fraction\":0,\"report_to\":\"cf-nel\",\"max_age\":604800}\n1 < Vary: Accept-Encoding\n1 < Server: cloudflare\n1 < CF-RAY: 813546a3b9379e2c-SIN\n{\"page\":2,\"per_page\":6,\"total\":12,\"total_pages\":2,\"data\":[{\"id\":7,\"email\":\"michael.lawson@reqres.in\",\"first_name\":\"Michael\",\"last_name\":\"Lawson\",\"avatar\":\"https:\/\/reqres.in\/img\/faces\/7-image.jpg\"},{\"id\":8,\"email\":\"lindsay.ferguson@reqres.in\",\"first_name\":\"Lindsay\",\"last_name\":\"Ferguson\",\"avatar\":\"https:\/\/reqres.in\/img\/faces\/8-image.jpg\"},{\"id\":9,\"email\":\"tobias.funke@reqres.in\",\"first_name\":\"Tobias\",\"last_name\":\"Funke\",\"avatar\":\"https:\/\/reqres.in\/img\/faces\/9-image.jpg\"},{\"id\":10,\"email\":\"byron.fields@reqres.in\",\"first_name\":\"Byron\",\"last_name\":\"Fields\",\"avatar\":\"https:\/\/reqres.in\/img\/faces\/10-image.jpg\"},{\"id\":11,\"email\":\"george.edwards@reqres.in\",\"first_name\":\"George\",\"last_name\":\"Edwards\",\"avatar\":\"https:\/\/reqres.in\/img\/faces\/11-image.jpg\"},{\"id\":12,\"email\":\"rachel.howell@reqres.in\",\"first_name\":\"Rachel\",\"last_name\":\"Howell\",\"avatar\":\"https:\/\/reqres.in\/img\/faces\/12-image.jpg\"}],\"support\":{\"url\":\"https:\/\/reqres.in\/#support-heading\",\"text\":\"To keep ReqRes free, contributions towards server costs are appreciated!\"}}\n\n"},{"result":{"nanos":21400,"millis":0.0214,"status":"passed"},"step":{"line":11,"prefix":"Then","index":3,"text":"status 200"}}],"executorName":"main","line":7,"name":"Verify status code 200","description":"","durationMillis":676.0469,"startTime":1696840377119,"failed":false,"refId":"[1:7]","endTime":1696840378024,"exampleIndex":-1},{"sectionIndex":1,"stepResults":[{"result":{"nanos":792500,"millis":0.7925,"status":"passed"},"step":{"background":true,"line":4,"prefix":"Given","index":0,"text":"url \"https:\/\/reqres.in\""},"stepLog":"15:32:58.048 karate.env system property was: null \n"},{"result":{"nanos":1852500,"millis":1.8525,"status":"passed"},"step":{"background":true,"line":5,"prefix":"And","index":1,"text":"print 'url is correct'"},"stepLog":"15:32:58.054 [print] url is correct \n"},{"result":{"nanos":1056200,"millis":1.0562,"status":"passed"},"step":{"line":14,"prefix":"Given","index":0,"text":"path '\/api\/users'"}},{"result":{"nanos":930600,"millis":0.9306,"status":"passed"},"step":{"line":15,"prefix":"And","index":1,"text":"param page = 2"}},{"result":{"nanos":87213000,"millis":87.213,"status":"passed"},"step":{"line":16,"prefix":"When","index":2,"text":"method get"},"stepLog":"15:32:58.058 request:\n1 > GET https:\/\/reqres.in\/api\/users?page=2\n1 > Host: reqres.in\n1 > Connection: Keep-Alive\n1 > User-Agent: Apache-HttpClient\/4.5.14 (Java\/17.0.8.1)\n1 > Accept-Encoding: gzip,deflate\n\n\n15:32:58.140 response time in milliseconds: 81\n1 < 200\n1 < Date: Mon, 09 Oct 2023 08:32:57 GMT\n1 < Content-Type: application\/json; charset=utf-8\n1 < Transfer-Encoding: chunked\n1 < Connection: keep-alive\n1 < X-Powered-By: Express\n1 < Access-Control-Allow-Origin: *\n1 < Etag: W\/\"406-ut0vzoCuidvyMf8arZpMpJ6ZRDw\"\n1 < Via: 1.1 vegur\n1 < Cache-Control: max-age=14400\n1 < CF-Cache-Status: HIT\n1 < Age: 4357\n1 < Report-To: {\"endpoints\":[{\"url\":\"https:\\\/\\\/a.nel.cloudflare.com\\\/report\\\/v3?s=AQ73cOuDi2dQk5CRv4gO1ZK8fjNDD7qtFizv%2Facq%2Bdls11j6R%2FtI9gE6Gs%2FniSVgYK5qaQZkJGYHBdrtm2pd2DHpNaDGJy3UDv9%2FQGMIwE3eJI4LVqD%2F%2Fvt34w%3D%3D\"}],\"group\":\"cf-nel\",\"max_age\":604800}\n1 < NEL: {\"success_fraction\":0,\"report_to\":\"cf-nel\",\"max_age\":604800}\n1 < Vary: Accept-Encoding\n1 < Server: cloudflare\n1 < CF-RAY: 813546a4cb9e404d-SIN\n{\"page\":2,\"per_page\":6,\"total\":12,\"total_pages\":2,\"data\":[{\"id\":7,\"email\":\"michael.lawson@reqres.in\",\"first_name\":\"Michael\",\"last_name\":\"Lawson\",\"avatar\":\"https:\/\/reqres.in\/img\/faces\/7-image.jpg\"},{\"id\":8,\"email\":\"lindsay.ferguson@reqres.in\",\"first_name\":\"Lindsay\",\"last_name\":\"Ferguson\",\"avatar\":\"https:\/\/reqres.in\/img\/faces\/8-image.jpg\"},{\"id\":9,\"email\":\"tobias.funke@reqres.in\",\"first_name\":\"Tobias\",\"last_name\":\"Funke\",\"avatar\":\"https:\/\/reqres.in\/img\/faces\/9-image.jpg\"},{\"id\":10,\"email\":\"byron.fields@reqres.in\",\"first_name\":\"Byron\",\"last_name\":\"Fields\",\"avatar\":\"https:\/\/reqres.in\/img\/faces\/10-image.jpg\"},{\"id\":11,\"email\":\"george.edwards@reqres.in\",\"first_name\":\"George\",\"last_name\":\"Edwards\",\"avatar\":\"https:\/\/reqres.in\/img\/faces\/11-image.jpg\"},{\"id\":12,\"email\":\"rachel.howell@reqres.in\",\"first_name\":\"Rachel\",\"last_name\":\"Howell\",\"avatar\":\"https:\/\/reqres.in\/img\/faces\/12-image.jpg\"}],\"support\":{\"url\":\"https:\/\/reqres.in\/#support-heading\",\"text\":\"To keep ReqRes free, contributions towards server costs are appreciated!\"}}\n\n"},{"result":{"nanos":9400,"millis":0.0094,"status":"passed"},"step":{"line":17,"prefix":"Then","index":3,"text":"status 200"}},{"result":{"nanos":9899400,"millis":9.8994,"status":"passed"},"step":{"line":18,"prefix":"And","index":4,"text":"print response"},"stepLog":"15:32:58.153 [print] {\n  \"page\": 2,\n  \"per_page\": 6,\n  \"total\": 12,\n  \"total_pages\": 2,\n  \"data\": [\n    {\n      \"id\": 7,\n      \"email\": \"michael.lawson@reqres.in\",\n      \"first_name\": \"Michael\",\n      \"last_name\": \"Lawson\",\n      \"avatar\": \"https:\/\/reqres.in\/img\/faces\/7-image.jpg\"\n    },\n    {\n      \"id\": 8,\n      \"email\": \"lindsay.ferguson@reqres.in\",\n      \"first_name\": \"Lindsay\",\n      \"last_name\": \"Ferguson\",\n      \"avatar\": \"https:\/\/reqres.in\/img\/faces\/8-image.jpg\"\n    },\n    {\n      \"id\": 9,\n      \"email\": \"tobias.funke@reqres.in\",\n      \"first_name\": \"Tobias\",\n      \"last_name\": \"Funke\",\n      \"avatar\": \"https:\/\/reqres.in\/img\/faces\/9-image.jpg\"\n    },\n    {\n      \"id\": 10,\n      \"email\": \"byron.fields@reqres.in\",\n      \"first_name\": \"Byron\",\n      \"last_name\": \"Fields\",\n      \"avatar\": \"https:\/\/reqres.in\/img\/faces\/10-image.jpg\"\n    },\n    {\n      \"id\": 11,\n      \"email\": \"george.edwards@reqres.in\",\n      \"first_name\": \"George\",\n      \"last_name\": \"Edwards\",\n      \"avatar\": \"https:\/\/reqres.in\/img\/faces\/11-image.jpg\"\n    },\n    {\n      \"id\": 12,\n      \"email\": \"rachel.howell@reqres.in\",\n      \"first_name\": \"Rachel\",\n      \"last_name\": \"Howell\",\n      \"avatar\": \"https:\/\/reqres.in\/img\/faces\/12-image.jpg\"\n    }\n  ],\n  \"support\": {\n    \"url\": \"https:\/\/reqres.in\/#support-heading\",\n    \"text\": \"To keep ReqRes free, contributions towards server costs are appreciated!\"\n  }\n}\n \n"},{"result":{"nanos":48308900,"millis":48.3089,"status":"passed"},"step":{"endLine":76,"line":19,"prefix":"And","docString":"{\n   \"page\": 2,\n   \"per_page\": 6,\n   \"total\": 12,\n   \"total_pages\": 2,\n   \"data\": [\n       {\n           \"id\": 7,\n           \"email\": \"michael.lawson@reqres.in\",\n           \"first_name\": \"Michael\",\n           \"last_name\": \"Lawson\",\n           \"avatar\": \"https:\/\/reqres.in\/img\/faces\/7-image.jpg\"\n       },\n       {\n           \"id\": 8,\n           \"email\": \"lindsay.ferguson@reqres.in\",\n           \"first_name\": \"Lindsay\",\n           \"last_name\": \"Ferguson\",\n           \"avatar\": \"https:\/\/reqres.in\/img\/faces\/8-image.jpg\"\n       },\n       {\n           \"id\": 9,\n           \"email\": \"tobias.funke@reqres.in\",\n           \"first_name\": \"Tobias\",\n           \"last_name\": \"Funke\",\n           \"avatar\": \"https:\/\/reqres.in\/img\/faces\/9-image.jpg\"\n       },\n       {\n           \"id\": 10,\n           \"email\": \"byron.fields@reqres.in\",\n           \"first_name\": \"Byron\",\n           \"last_name\": \"Fields\",\n           \"avatar\": \"https:\/\/reqres.in\/img\/faces\/10-image.jpg\"\n       },\n       {\n           \"id\": 11,\n           \"email\": \"george.edwards@reqres.in\",\n           \"first_name\": \"George\",\n           \"last_name\": \"Edwards\",\n           \"avatar\": \"https:\/\/reqres.in\/img\/faces\/11-image.jpg\"\n       },\n       {\n           \"id\": 12,\n           \"email\": \"rachel.howell@reqres.in\",\n           \"first_name\": \"Rachel\",\n           \"last_name\": \"Howell\",\n           \"avatar\": \"https:\/\/reqres.in\/img\/faces\/12-image.jpg\"\n       }\n   ],\n   \"support\": {\n       \"url\": \"https:\/\/reqres.in\/#support-heading\",\n       \"text\": \"To keep ReqRes free, contributions towards server costs are appreciated!\"\n   }\n\t}","index":5,"text":"match response =="}}],"executorName":"main","line":13,"name":"Verify the response match with expected result","description":"","durationMillis":150.0625,"startTime":1696840378045,"failed":false,"refId":"[2:13]","endTime":1696840378202,"exampleIndex":-1},{"sectionIndex":2,"stepResults":[{"result":{"nanos":297600,"millis":0.2976,"status":"passed"},"step":{"background":true,"line":4,"prefix":"Given","index":0,"text":"url \"https:\/\/reqres.in\""},"stepLog":"15:32:58.212 karate.env system property was: null \n"},{"result":{"nanos":619000,"millis":0.619,"status":"passed"},"step":{"background":true,"line":5,"prefix":"And","index":1,"text":"print 'url is correct'"},"stepLog":"15:32:58.215 [print] url is correct \n"},{"result":{"nanos":191500,"millis":0.1915,"status":"passed"},"step":{"line":79,"prefix":"Given","index":0,"text":"path '\/api\/users'"}},{"result":{"nanos":378800,"millis":0.3788,"status":"passed"},"step":{"line":80,"prefix":"And","index":1,"text":"param page = 2"}},{"result":{"nanos":75185200,"millis":75.1852,"status":"passed"},"step":{"line":81,"prefix":"When","index":2,"text":"method get"},"stepLog":"15:32:58.217 request:\n1 > GET https:\/\/reqres.in\/api\/users?page=2\n1 > Host: reqres.in\n1 > Connection: Keep-Alive\n1 > User-Agent: Apache-HttpClient\/4.5.14 (Java\/17.0.8.1)\n1 > Accept-Encoding: gzip,deflate\n\n\n15:32:58.288 response time in milliseconds: 70\n1 < 200\n1 < Date: Mon, 09 Oct 2023 08:32:57 GMT\n1 < Content-Type: application\/json; charset=utf-8\n1 < Transfer-Encoding: chunked\n1 < Connection: keep-alive\n1 < X-Powered-By: Express\n1 < Access-Control-Allow-Origin: *\n1 < Etag: W\/\"406-ut0vzoCuidvyMf8arZpMpJ6ZRDw\"\n1 < Via: 1.1 vegur\n1 < Cache-Control: max-age=14400\n1 < CF-Cache-Status: HIT\n1 < Age: 4151\n1 < Report-To: {\"endpoints\":[{\"url\":\"https:\\\/\\\/a.nel.cloudflare.com\\\/report\\\/v3?s=5LWB7D427Mi7LRk8EK%2FvCVHzvWinUZEwtNKVu%2Feb9xXbWh46LULR1A05MYn3DtNNNGjmMOoqcMyLF1slchp2BBAfPXsjbUbTLTA7H2uFYwHJFRhJqpsQ%2F%2Fg%2FhQ%3D%3D\"}],\"group\":\"cf-nel\",\"max_age\":604800}\n1 < NEL: {\"success_fraction\":0,\"report_to\":\"cf-nel\",\"max_age\":604800}\n1 < Vary: Accept-Encoding\n1 < Server: cloudflare\n1 < CF-RAY: 813546a5ba783e2c-SIN\n{\"page\":2,\"per_page\":6,\"total\":12,\"total_pages\":2,\"data\":[{\"id\":7,\"email\":\"michael.lawson@reqres.in\",\"first_name\":\"Michael\",\"last_name\":\"Lawson\",\"avatar\":\"https:\/\/reqres.in\/img\/faces\/7-image.jpg\"},{\"id\":8,\"email\":\"lindsay.ferguson@reqres.in\",\"first_name\":\"Lindsay\",\"last_name\":\"Ferguson\",\"avatar\":\"https:\/\/reqres.in\/img\/faces\/8-image.jpg\"},{\"id\":9,\"email\":\"tobias.funke@reqres.in\",\"first_name\":\"Tobias\",\"last_name\":\"Funke\",\"avatar\":\"https:\/\/reqres.in\/img\/faces\/9-image.jpg\"},{\"id\":10,\"email\":\"byron.fields@reqres.in\",\"first_name\":\"Byron\",\"last_name\":\"Fields\",\"avatar\":\"https:\/\/reqres.in\/img\/faces\/10-image.jpg\"},{\"id\":11,\"email\":\"george.edwards@reqres.in\",\"first_name\":\"George\",\"last_name\":\"Edwards\",\"avatar\":\"https:\/\/reqres.in\/img\/faces\/11-image.jpg\"},{\"id\":12,\"email\":\"rachel.howell@reqres.in\",\"first_name\":\"Rachel\",\"last_name\":\"Howell\",\"avatar\":\"https:\/\/reqres.in\/img\/faces\/12-image.jpg\"}],\"support\":{\"url\":\"https:\/\/reqres.in\/#support-heading\",\"text\":\"To keep ReqRes free, contributions towards server costs are appreciated!\"}}\n\n"},{"result":{"nanos":12200,"millis":0.0122,"status":"passed"},"step":{"line":82,"prefix":"Then","index":3,"text":"status 200"}},{"result":{"nanos":6124100,"millis":6.1241,"status":"passed"},"step":{"line":83,"prefix":"And","index":4,"text":"def responseData = response.data"}},{"result":{"nanos":2496600,"millis":2.4966,"status":"passed"},"step":{"line":84,"prefix":"And","index":5,"text":"print responseData"},"stepLog":"15:32:58.300 [print] [\n  {\n    \"id\": 7,\n    \"email\": \"michael.lawson@reqres.in\",\n    \"first_name\": \"Michael\",\n    \"last_name\": \"Lawson\",\n    \"avatar\": \"https:\/\/reqres.in\/img\/faces\/7-image.jpg\"\n  },\n  {\n    \"id\": 8,\n    \"email\": \"lindsay.ferguson@reqres.in\",\n    \"first_name\": \"Lindsay\",\n    \"last_name\": \"Ferguson\",\n    \"avatar\": \"https:\/\/reqres.in\/img\/faces\/8-image.jpg\"\n  },\n  {\n    \"id\": 9,\n    \"email\": \"tobias.funke@reqres.in\",\n    \"first_name\": \"Tobias\",\n    \"last_name\": \"Funke\",\n    \"avatar\": \"https:\/\/reqres.in\/img\/faces\/9-image.jpg\"\n  },\n  {\n    \"id\": 10,\n    \"email\": \"byron.fields@reqres.in\",\n    \"first_name\": \"Byron\",\n    \"last_name\": \"Fields\",\n    \"avatar\": \"https:\/\/reqres.in\/img\/faces\/10-image.jpg\"\n  },\n  {\n    \"id\": 11,\n    \"email\": \"george.edwards@reqres.in\",\n    \"first_name\": \"George\",\n    \"last_name\": \"Edwards\",\n    \"avatar\": \"https:\/\/reqres.in\/img\/faces\/11-image.jpg\"\n  },\n  {\n    \"id\": 12,\n    \"email\": \"rachel.howell@reqres.in\",\n    \"first_name\": \"Rachel\",\n    \"last_name\": \"Howell\",\n    \"avatar\": \"https:\/\/reqres.in\/img\/faces\/12-image.jpg\"\n  }\n]\n \n"},{"result":{"nanos":3915900,"millis":3.9159,"status":"passed"},"step":{"line":85,"prefix":"And","index":6,"text":"def id = responseData[0].id"}},{"result":{"nanos":1949700,"millis":1.9497,"status":"passed"},"step":{"line":86,"prefix":"And","index":7,"text":"print id"},"stepLog":"15:32:58.306 [print] 7 \n"},{"result":{"nanos":1679000,"millis":1.679,"status":"passed"},"step":{"line":87,"prefix":"And","index":8,"text":"match id == 7"}},{"result":{"nanos":9839600,"millis":9.8396,"status":"passed"},"step":{"line":88,"prefix":"And","index":9,"text":"def responseDataFirstName = response.data.first_name"}},{"result":{"nanos":1849900,"millis":1.8499,"status":"passed"},"step":{"line":89,"prefix":"And","index":10,"text":"def firstName = responseData[0].first_name"}},{"result":{"nanos":1439400,"millis":1.4394,"status":"passed"},"step":{"line":90,"prefix":"And","index":11,"text":"print firstName"},"stepLog":"15:32:58.321 [print] Michael \n"},{"result":{"nanos":3338100,"millis":3.3381,"status":"passed"},"step":{"line":91,"prefix":"Then","index":12,"text":"match firstName == \"Michael\""}}],"executorName":"main","line":78,"name":"Verify the specific response correct","description":"","durationMillis":109.3166,"startTime":1696840378212,"failed":false,"refId":"[3:78]","endTime":1696840378325,"exampleIndex":-1},{"sectionIndex":3,"stepResults":[{"result":{"nanos":362000,"millis":0.362,"status":"passed"},"step":{"background":true,"line":4,"prefix":"Given","index":0,"text":"url \"https:\/\/reqres.in\""},"stepLog":"15:32:58.336 karate.env system property was: null \n"},{"result":{"nanos":577000,"millis":0.577,"status":"passed"},"step":{"background":true,"line":5,"prefix":"And","index":1,"text":"print 'url is correct'"},"stepLog":"15:32:58.338 [print] url is correct \n"},{"result":{"nanos":458500,"millis":0.4585,"status":"passed"},"step":{"line":94,"prefix":"Given","index":0,"text":"path '\/api\/invalid'"}},{"result":{"nanos":1206900,"millis":1.2069,"status":"passed"},"step":{"line":95,"prefix":"And","index":1,"text":"param page = \"asadasa\""}},{"result":{"nanos":617378200,"millis":617.3782,"status":"passed"},"step":{"line":96,"prefix":"When","index":2,"text":"method get"},"stepLog":"15:32:58.341 request:\n1 > GET https:\/\/reqres.in\/api\/invalid?page=asadasa\n1 > Host: reqres.in\n1 > Connection: Keep-Alive\n1 > User-Agent: Apache-HttpClient\/4.5.14 (Java\/17.0.8.1)\n1 > Accept-Encoding: gzip,deflate\n\n\n15:32:58.954 response time in milliseconds: 610\n1 < 200\n1 < Date: Mon, 09 Oct 2023 08:32:57 GMT\n1 < Content-Type: application\/json; charset=utf-8\n1 < Transfer-Encoding: chunked\n1 < Connection: keep-alive\n1 < Report-To: {\"group\":\"heroku-nel\",\"max_age\":3600,\"endpoints\":[{\"url\":\"https:\/\/nel.heroku.com\/reports?ts=1696840377&sid=c4c9725f-1ab0-44d8-820f-430df2718e11&s=KhkBjAv0I%2BlpLtaRL5MC495C98Z%2BPDjWQwsJSTXaOgI%3D\"}]}\n1 < Reporting-Endpoints: heroku-nel=https:\/\/nel.heroku.com\/reports?ts=1696840377&sid=c4c9725f-1ab0-44d8-820f-430df2718e11&s=KhkBjAv0I%2BlpLtaRL5MC495C98Z%2BPDjWQwsJSTXaOgI%3D\n1 < Nel: {\"report_to\":\"heroku-nel\",\"max_age\":3600,\"success_fraction\":0.005,\"failure_fraction\":0.05,\"response_headers\":[\"Via\"]}\n1 < X-Powered-By: Express\n1 < Access-Control-Allow-Origin: *\n1 < Etag: W\/\"2c1-N6Rqerxquq2kgQhL51EiSg4x0R8\"\n1 < Via: 1.1 vegur\n1 < Cache-Control: max-age=14400\n1 < CF-Cache-Status: MISS\n1 < Vary: Accept-Encoding\n1 < Server: cloudflare\n1 < CF-RAY: 813546a69ef86002-SIN\n{\"page\":1,\"per_page\":6,\"total\":12,\"total_pages\":2,\"data\":[{\"id\":1,\"name\":\"cerulean\",\"year\":2000,\"color\":\"#98B2D1\",\"pantone_value\":\"15-4020\"},{\"id\":2,\"name\":\"fuchsia rose\",\"year\":2001,\"color\":\"#C74375\",\"pantone_value\":\"17-2031\"},{\"id\":3,\"name\":\"true red\",\"year\":2002,\"color\":\"#BF1932\",\"pantone_value\":\"19-1664\"},{\"id\":4,\"name\":\"aqua sky\",\"year\":2003,\"color\":\"#7BC4C4\",\"pantone_value\":\"14-4811\"},{\"id\":5,\"name\":\"tigerlily\",\"year\":2004,\"color\":\"#E2583E\",\"pantone_value\":\"17-1456\"},{\"id\":6,\"name\":\"blue turquoise\",\"year\":2005,\"color\":\"#53B0AE\",\"pantone_value\":\"15-5217\"}],\"support\":{\"url\":\"https:\/\/reqres.in\/#support-heading\",\"text\":\"To keep ReqRes free, contributions towards server costs are appreciated!\"}}\n\n"},{"result":{"nanos":21917400,"errorMessage":"status code was: 200, expected: 400, response time in milliseconds: 610, url: https:\/\/reqres.in\/api\/invalid?page=asadasa, response: \n{\"page\":1,\"per_page\":6,\"total\":12,\"total_pages\":2,\"data\":[{\"id\":1,\"name\":\"cerulean\",\"year\":2000,\"color\":\"#98B2D1\",\"pantone_value\":\"15-4020\"},{\"id\":2,\"name\":\"fuchsia rose\",\"year\":2001,\"color\":\"#C74375\",\"pantone_value\":\"17-2031\"},{\"id\":3,\"name\":\"true red\",\"year\":2002,\"color\":\"#BF1932\",\"pantone_value\":\"19-1664\"},{\"id\":4,\"name\":\"aqua sky\",\"year\":2003,\"color\":\"#7BC4C4\",\"pantone_value\":\"14-4811\"},{\"id\":5,\"name\":\"tigerlily\",\"year\":2004,\"color\":\"#E2583E\",\"pantone_value\":\"17-1456\"},{\"id\":6,\"name\":\"blue turquoise\",\"year\":2005,\"color\":\"#53B0AE\",\"pantone_value\":\"15-5217\"}],\"support\":{\"url\":\"https:\/\/reqres.in\/#support-heading\",\"text\":\"To keep ReqRes free, contributions towards server costs are appreciated!\"}}\nclasspath:examples\/users\/try.feature:97","millis":21.9174,"status":"failed"},"step":{"line":97,"prefix":"Then","index":3,"text":"status 400"},"stepLog":"15:32:58.982 classpath:examples\/users\/try.feature:97\nThen status 400\nstatus code was: 200, expected: 400, response time in milliseconds: 610, url: https:\/\/reqres.in\/api\/invalid?page=asadasa, response: \n{\"page\":1,\"per_page\":6,\"total\":12,\"total_pages\":2,\"data\":[{\"id\":1,\"name\":\"cerulean\",\"year\":2000,\"color\":\"#98B2D1\",\"pantone_value\":\"15-4020\"},{\"id\":2,\"name\":\"fuchsia rose\",\"year\":2001,\"color\":\"#C74375\",\"pantone_value\":\"17-2031\"},{\"id\":3,\"name\":\"true red\",\"year\":2002,\"color\":\"#BF1932\",\"pantone_value\":\"19-1664\"},{\"id\":4,\"name\":\"aqua sky\",\"year\":2003,\"color\":\"#7BC4C4\",\"pantone_value\":\"14-4811\"},{\"id\":5,\"name\":\"tigerlily\",\"year\":2004,\"color\":\"#E2583E\",\"pantone_value\":\"17-1456\"},{\"id\":6,\"name\":\"blue turquoise\",\"year\":2005,\"color\":\"#53B0AE\",\"pantone_value\":\"15-5217\"}],\"support\":{\"url\":\"https:\/\/reqres.in\/#support-heading\",\"text\":\"To keep ReqRes free, contributions towards server costs are appreciated!\"}}\nclasspath:examples\/users\/try.feature:97\n"}],"line":93,"description":"","durationMillis":641.9,"failed":true,"error":"status code was: 200, expected: 400, response time in milliseconds: 610, url: https:\/\/reqres.in\/api\/invalid?page=asadasa, response: \n{\"page\":1,\"per_page\":6,\"total\":12,\"total_pages\":2,\"data\":[{\"id\":1,\"name\":\"cerulean\",\"year\":2000,\"color\":\"#98B2D1\",\"pantone_value\":\"15-4020\"},{\"id\":2,\"name\":\"fuchsia rose\",\"year\":2001,\"color\":\"#C74375\",\"pantone_value\":\"17-2031\"},{\"id\":3,\"name\":\"true red\",\"year\":2002,\"color\":\"#BF1932\",\"pantone_value\":\"19-1664\"},{\"id\":4,\"name\":\"aqua sky\",\"year\":2003,\"color\":\"#7BC4C4\",\"pantone_value\":\"14-4811\"},{\"id\":5,\"name\":\"tigerlily\",\"year\":2004,\"color\":\"#E2583E\",\"pantone_value\":\"17-1456\"},{\"id\":6,\"name\":\"blue turquoise\",\"year\":2005,\"color\":\"#53B0AE\",\"pantone_value\":\"15-5217\"}],\"support\":{\"url\":\"https:\/\/reqres.in\/#support-heading\",\"text\":\"To keep ReqRes free, contributions towards server costs are appreciated!\"}}\nclasspath:examples\/users\/try.feature:97","executorName":"main","name":"Verify status code 400","startTime":1696840378335,"refId":"[4:93]","endTime":1696840378982,"exampleIndex":-1}],"callDepth":0,"name":"Get List Users","description":"","resultDate":"2023-10-09 03:32:58 PM","durationMillis":1577.326,"passedCount":3}