{"failedCount":0,"prefixedPath":"classpath:examples\/users\/getListUsers.feature","packageQualifiedName":"examples.users.getListUsers","loopIndex":-1,"relativePath":"examples\/users\/getListUsers.feature","scenarioResults":[{"sectionIndex":0,"stepResults":[{"result":{"nanos":1378600,"millis":1.3786,"status":"passed"},"step":{"background":true,"line":4,"prefix":"Given","index":0,"text":"url \"https:\/\/reqres.in\""},"stepLog":"16:34:03.946 karate.env system property was: null \n"},{"result":{"nanos":1712300,"millis":1.7123,"status":"passed"},"step":{"background":true,"line":5,"prefix":"And","index":1,"text":"print 'url is correct'"},"stepLog":"16:34:04.007 [print] url is correct \n"},{"result":{"nanos":550600,"millis":0.5506,"status":"passed"},"step":{"line":8,"prefix":"Given","index":0,"text":"path '\/api\/users'"}},{"result":{"nanos":7980900,"millis":7.9809,"status":"passed"},"step":{"line":9,"prefix":"And","index":1,"text":"param page = 2"}},{"result":{"nanos":650412600,"millis":650.4126,"status":"passed"},"step":{"line":10,"prefix":"When","index":2,"text":"method get"},"stepLog":"16:34:04.331 request:\n1 > GET https:\/\/reqres.in\/api\/users?page=2\n1 > Host: reqres.in\n1 > Connection: Keep-Alive\n1 > User-Agent: Apache-HttpClient\/4.5.14 (Java\/17.0.8.1)\n1 > Accept-Encoding: gzip,deflate\n\n\n16:34:04.629 response time in milliseconds: 294\n1 < 200\n1 < Date: Mon, 09 Oct 2023 09:34:03 GMT\n1 < Content-Type: application\/json; charset=utf-8\n1 < Transfer-Encoding: chunked\n1 < Connection: keep-alive\n1 < X-Powered-By: Express\n1 < Access-Control-Allow-Origin: *\n1 < Etag: W\/\"406-ut0vzoCuidvyMf8arZpMpJ6ZRDw\"\n1 < Via: 1.1 vegur\n1 < Cache-Control: max-age=14400\n1 < CF-Cache-Status: HIT\n1 < Age: 6847\n1 < Report-To: {\"endpoints\":[{\"url\":\"https:\\\/\\\/a.nel.cloudflare.com\\\/report\\\/v3?s=AXQiC023AXFjjaiGn4C6H9MVyppk%2BCtVvEM37IlUf9briA5rx%2Fp4Hor9P8qCXMj9MjkmDGSw0c2b8xwx2tC%2FopaGN1r6hVrk0KWEe3wqbL7yMlww9S54GRgChg%3D%3D\"}],\"group\":\"cf-nel\",\"max_age\":604800}\n1 < NEL: {\"success_fraction\":0,\"report_to\":\"cf-nel\",\"max_age\":604800}\n1 < Vary: Accept-Encoding\n1 < Server: cloudflare\n1 < CF-RAY: 8135a0282a503f76-SIN\n{\"page\":2,\"per_page\":6,\"total\":12,\"total_pages\":2,\"data\":[{\"id\":7,\"email\":\"michael.lawson@reqres.in\",\"first_name\":\"Michael\",\"last_name\":\"Lawson\",\"avatar\":\"https:\/\/reqres.in\/img\/faces\/7-image.jpg\"},{\"id\":8,\"email\":\"lindsay.ferguson@reqres.in\",\"first_name\":\"Lindsay\",\"last_name\":\"Ferguson\",\"avatar\":\"https:\/\/reqres.in\/img\/faces\/8-image.jpg\"},{\"id\":9,\"email\":\"tobias.funke@reqres.in\",\"first_name\":\"Tobias\",\"last_name\":\"Funke\",\"avatar\":\"https:\/\/reqres.in\/img\/faces\/9-image.jpg\"},{\"id\":10,\"email\":\"byron.fields@reqres.in\",\"first_name\":\"Byron\",\"last_name\":\"Fields\",\"avatar\":\"https:\/\/reqres.in\/img\/faces\/10-image.jpg\"},{\"id\":11,\"email\":\"george.edwards@reqres.in\",\"first_name\":\"George\",\"last_name\":\"Edwards\",\"avatar\":\"https:\/\/reqres.in\/img\/faces\/11-image.jpg\"},{\"id\":12,\"email\":\"rachel.howell@reqres.in\",\"first_name\":\"Rachel\",\"last_name\":\"Howell\",\"avatar\":\"https:\/\/reqres.in\/img\/faces\/12-image.jpg\"}],\"support\":{\"url\":\"https:\/\/reqres.in\/#support-heading\",\"text\":\"To keep ReqRes free, contributions towards server costs are appreciated!\"}}\n\n"},{"result":{"nanos":19000,"millis":0.019,"status":"passed"},"step":{"line":11,"prefix":"Then","index":3,"text":"status 200"}}],"executorName":"main","line":7,"name":"Verify status code 200","description":"","durationMillis":662.054,"startTime":1696844043763,"failed":false,"refId":"[1:7]","endTime":1696844044668,"exampleIndex":-1},{"sectionIndex":1,"stepResults":[{"result":{"nanos":1014100,"millis":1.0141,"status":"passed"},"step":{"background":true,"line":4,"prefix":"Given","index":0,"text":"url \"https:\/\/reqres.in\""},"stepLog":"16:34:04.691 karate.env system property was: null \n"},{"result":{"nanos":1713200,"millis":1.7132,"status":"passed"},"step":{"background":true,"line":5,"prefix":"And","index":1,"text":"print 'url is correct'"},"stepLog":"16:34:04.696 [print] url is correct \n"},{"result":{"nanos":986500,"millis":0.9865,"status":"passed"},"step":{"line":14,"prefix":"Given","index":0,"text":"path '\/api\/users'"}},{"result":{"nanos":1018000,"millis":1.018,"status":"passed"},"step":{"line":15,"prefix":"And","index":1,"text":"param page = 2"}},{"result":{"nanos":87195900,"millis":87.1959,"status":"passed"},"step":{"line":16,"prefix":"When","index":2,"text":"method get"},"stepLog":"16:34:04.701 request:\n1 > GET https:\/\/reqres.in\/api\/users?page=2\n1 > Host: reqres.in\n1 > Connection: Keep-Alive\n1 > User-Agent: Apache-HttpClient\/4.5.14 (Java\/17.0.8.1)\n1 > Accept-Encoding: gzip,deflate\n\n\n16:34:04.782 response time in milliseconds: 80\n1 < 200\n1 < Date: Mon, 09 Oct 2023 09:34:03 GMT\n1 < Content-Type: application\/json; charset=utf-8\n1 < Transfer-Encoding: chunked\n1 < Connection: keep-alive\n1 < X-Powered-By: Express\n1 < Access-Control-Allow-Origin: *\n1 < Etag: W\/\"406-ut0vzoCuidvyMf8arZpMpJ6ZRDw\"\n1 < Via: 1.1 vegur\n1 < Cache-Control: max-age=14400\n1 < CF-Cache-Status: HIT\n1 < Age: 1219\n1 < Report-To: {\"endpoints\":[{\"url\":\"https:\\\/\\\/a.nel.cloudflare.com\\\/report\\\/v3?s=eq3GLXFhGvsk%2FFNBfiNPshjIPBBQj5zJzexMz%2Bd%2BSSZoRBotrquHbBLxI585jpJVQpEm09Z3yTKkMwOoaxP8f3Wm%2FQROaNx7WYuoHqssyze0bPZoNQ05gOXL6g%3D%3D\"}],\"group\":\"cf-nel\",\"max_age\":604800}\n1 < NEL: {\"success_fraction\":0,\"report_to\":\"cf-nel\",\"max_age\":604800}\n1 < Vary: Accept-Encoding\n1 < Server: cloudflare\n1 < CF-RAY: 8135a0292e364da7-SIN\n{\"page\":2,\"per_page\":6,\"total\":12,\"total_pages\":2,\"data\":[{\"id\":7,\"email\":\"michael.lawson@reqres.in\",\"first_name\":\"Michael\",\"last_name\":\"Lawson\",\"avatar\":\"https:\/\/reqres.in\/img\/faces\/7-image.jpg\"},{\"id\":8,\"email\":\"lindsay.ferguson@reqres.in\",\"first_name\":\"Lindsay\",\"last_name\":\"Ferguson\",\"avatar\":\"https:\/\/reqres.in\/img\/faces\/8-image.jpg\"},{\"id\":9,\"email\":\"tobias.funke@reqres.in\",\"first_name\":\"Tobias\",\"last_name\":\"Funke\",\"avatar\":\"https:\/\/reqres.in\/img\/faces\/9-image.jpg\"},{\"id\":10,\"email\":\"byron.fields@reqres.in\",\"first_name\":\"Byron\",\"last_name\":\"Fields\",\"avatar\":\"https:\/\/reqres.in\/img\/faces\/10-image.jpg\"},{\"id\":11,\"email\":\"george.edwards@reqres.in\",\"first_name\":\"George\",\"last_name\":\"Edwards\",\"avatar\":\"https:\/\/reqres.in\/img\/faces\/11-image.jpg\"},{\"id\":12,\"email\":\"rachel.howell@reqres.in\",\"first_name\":\"Rachel\",\"last_name\":\"Howell\",\"avatar\":\"https:\/\/reqres.in\/img\/faces\/12-image.jpg\"}],\"support\":{\"url\":\"https:\/\/reqres.in\/#support-heading\",\"text\":\"To keep ReqRes free, contributions towards server costs are appreciated!\"}}\n\n"},{"result":{"nanos":15400,"millis":0.0154,"status":"passed"},"step":{"line":17,"prefix":"Then","index":3,"text":"status 200"}},{"result":{"nanos":53782200,"millis":53.7822,"status":"passed"},"step":{"endLine":29,"line":18,"prefix":"And","docString":"{\n\t\t \"page\": '#notnull',\n\t   \"per_page\": '#notnull',\n\t   \"total\": '#present',\n\t   \"total_pages\": \"#ignore\",\n\t   \"data\" : \"#array\", \n\t   \"support\" : \"##object\"\n\t}","index":4,"text":"match response =="}},{"result":{"nanos":9722800,"millis":9.7228,"status":"passed"},"step":{"endLine":40,"line":31,"prefix":"And","docString":"{\n\tid:'#number? _ > 0', \n\temail:'#regex .+@reqres.in', \n\tfirst_name:'#string', \n\tlast_name:'#string', \n\tavatar: '#string'\n}","index":5,"text":"match response.data[*] contains"}}],"executorName":"main","line":13,"name":"Verify all field exist","description":"","durationMillis":155.4481,"startTime":1696844044687,"failed":false,"refId":"[2:13]","endTime":1696844044849,"exampleIndex":-1},{"sectionIndex":2,"stepResults":[{"result":{"nanos":323900,"millis":0.3239,"status":"passed"},"step":{"background":true,"line":4,"prefix":"Given","index":0,"text":"url \"https:\/\/reqres.in\""},"stepLog":"16:34:04.858 karate.env system property was: null \n"},{"result":{"nanos":620300,"millis":0.6203,"status":"passed"},"step":{"background":true,"line":5,"prefix":"And","index":1,"text":"print 'url is correct'"},"stepLog":"16:34:04.861 [print] url is correct \n"},{"result":{"nanos":168500,"millis":0.1685,"status":"passed"},"step":{"line":44,"prefix":"Given","index":0,"text":"path '\/api\/users'"}},{"result":{"nanos":475500,"millis":0.4755,"status":"passed"},"step":{"line":45,"prefix":"And","index":1,"text":"param page = 2"}},{"result":{"nanos":88584700,"millis":88.5847,"status":"passed"},"step":{"line":46,"prefix":"When","index":2,"text":"method get"},"stepLog":"16:34:04.863 request:\n1 > GET https:\/\/reqres.in\/api\/users?page=2\n1 > Host: reqres.in\n1 > Connection: Keep-Alive\n1 > User-Agent: Apache-HttpClient\/4.5.14 (Java\/17.0.8.1)\n1 > Accept-Encoding: gzip,deflate\n\n\n16:34:04.947 response time in milliseconds: 83\n1 < 200\n1 < Date: Mon, 09 Oct 2023 09:34:03 GMT\n1 < Content-Type: application\/json; charset=utf-8\n1 < Transfer-Encoding: chunked\n1 < Connection: keep-alive\n1 < X-Powered-By: Express\n1 < Access-Control-Allow-Origin: *\n1 < Etag: W\/\"406-ut0vzoCuidvyMf8arZpMpJ6ZRDw\"\n1 < Via: 1.1 vegur\n1 < Cache-Control: max-age=14400\n1 < CF-Cache-Status: HIT\n1 < Age: 607\n1 < Report-To: {\"endpoints\":[{\"url\":\"https:\\\/\\\/a.nel.cloudflare.com\\\/report\\\/v3?s=rPbLGSon2MJdBS%2FT9nRgErebEGuMc%2B%2BZHdJtuWKBHbhIRgTZPbdSCmHIpsHtVB0v7ge%2B20VBZyq6dUGqYcysB8HanQWZRf0eSX330YQ5tcRHqWV4fTuEvqtEqQ%3D%3D\"}],\"group\":\"cf-nel\",\"max_age\":604800}\n1 < NEL: {\"success_fraction\":0,\"report_to\":\"cf-nel\",\"max_age\":604800}\n1 < Vary: Accept-Encoding\n1 < Server: cloudflare\n1 < CF-RAY: 8135a02a286d3e07-SIN\n{\"page\":2,\"per_page\":6,\"total\":12,\"total_pages\":2,\"data\":[{\"id\":7,\"email\":\"michael.lawson@reqres.in\",\"first_name\":\"Michael\",\"last_name\":\"Lawson\",\"avatar\":\"https:\/\/reqres.in\/img\/faces\/7-image.jpg\"},{\"id\":8,\"email\":\"lindsay.ferguson@reqres.in\",\"first_name\":\"Lindsay\",\"last_name\":\"Ferguson\",\"avatar\":\"https:\/\/reqres.in\/img\/faces\/8-image.jpg\"},{\"id\":9,\"email\":\"tobias.funke@reqres.in\",\"first_name\":\"Tobias\",\"last_name\":\"Funke\",\"avatar\":\"https:\/\/reqres.in\/img\/faces\/9-image.jpg\"},{\"id\":10,\"email\":\"byron.fields@reqres.in\",\"first_name\":\"Byron\",\"last_name\":\"Fields\",\"avatar\":\"https:\/\/reqres.in\/img\/faces\/10-image.jpg\"},{\"id\":11,\"email\":\"george.edwards@reqres.in\",\"first_name\":\"George\",\"last_name\":\"Edwards\",\"avatar\":\"https:\/\/reqres.in\/img\/faces\/11-image.jpg\"},{\"id\":12,\"email\":\"rachel.howell@reqres.in\",\"first_name\":\"Rachel\",\"last_name\":\"Howell\",\"avatar\":\"https:\/\/reqres.in\/img\/faces\/12-image.jpg\"}],\"support\":{\"url\":\"https:\/\/reqres.in\/#support-heading\",\"text\":\"To keep ReqRes free, contributions towards server costs are appreciated!\"}}\n\n"},{"result":{"nanos":11100,"millis":0.0111,"status":"passed"},"step":{"line":47,"prefix":"Then","index":3,"text":"status 200"}},{"result":{"nanos":3880100,"millis":3.8801,"status":"passed"},"step":{"line":48,"prefix":"And","index":4,"text":"print response"},"stepLog":"16:34:04.954 [print] {\n  \"page\": 2,\n  \"per_page\": 6,\n  \"total\": 12,\n  \"total_pages\": 2,\n  \"data\": [\n    {\n      \"id\": 7,\n      \"email\": \"michael.lawson@reqres.in\",\n      \"first_name\": \"Michael\",\n      \"last_name\": \"Lawson\",\n      \"avatar\": \"https:\/\/reqres.in\/img\/faces\/7-image.jpg\"\n    },\n    {\n      \"id\": 8,\n      \"email\": \"lindsay.ferguson@reqres.in\",\n      \"first_name\": \"Lindsay\",\n      \"last_name\": \"Ferguson\",\n      \"avatar\": \"https:\/\/reqres.in\/img\/faces\/8-image.jpg\"\n    },\n    {\n      \"id\": 9,\n      \"email\": \"tobias.funke@reqres.in\",\n      \"first_name\": \"Tobias\",\n      \"last_name\": \"Funke\",\n      \"avatar\": \"https:\/\/reqres.in\/img\/faces\/9-image.jpg\"\n    },\n    {\n      \"id\": 10,\n      \"email\": \"byron.fields@reqres.in\",\n      \"first_name\": \"Byron\",\n      \"last_name\": \"Fields\",\n      \"avatar\": \"https:\/\/reqres.in\/img\/faces\/10-image.jpg\"\n    },\n    {\n      \"id\": 11,\n      \"email\": \"george.edwards@reqres.in\",\n      \"first_name\": \"George\",\n      \"last_name\": \"Edwards\",\n      \"avatar\": \"https:\/\/reqres.in\/img\/faces\/11-image.jpg\"\n    },\n    {\n      \"id\": 12,\n      \"email\": \"rachel.howell@reqres.in\",\n      \"first_name\": \"Rachel\",\n      \"last_name\": \"Howell\",\n      \"avatar\": \"https:\/\/reqres.in\/img\/faces\/12-image.jpg\"\n    }\n  ],\n  \"support\": {\n    \"url\": \"https:\/\/reqres.in\/#support-heading\",\n    \"text\": \"To keep ReqRes free, contributions towards server costs are appreciated!\"\n  }\n}\n \n"},{"result":{"nanos":1763400,"millis":1.7634,"status":"passed"},"step":{"endLine":106,"line":49,"prefix":"And","docString":"{\n   \"page\": 2,\n   \"per_page\": 6,\n   \"total\": 12,\n   \"total_pages\": 2,\n   \"data\": [\n       {\n           \"id\": 7,\n           \"email\": \"michael.lawson@reqres.in\",\n           \"first_name\": \"Michael\",\n           \"last_name\": \"Lawson\",\n           \"avatar\": \"https:\/\/reqres.in\/img\/faces\/7-image.jpg\"\n       },\n       {\n           \"id\": 8,\n           \"email\": \"lindsay.ferguson@reqres.in\",\n           \"first_name\": \"Lindsay\",\n           \"last_name\": \"Ferguson\",\n           \"avatar\": \"https:\/\/reqres.in\/img\/faces\/8-image.jpg\"\n       },\n       {\n           \"id\": 9,\n           \"email\": \"tobias.funke@reqres.in\",\n           \"first_name\": \"Tobias\",\n           \"last_name\": \"Funke\",\n           \"avatar\": \"https:\/\/reqres.in\/img\/faces\/9-image.jpg\"\n       },\n       {\n           \"id\": 10,\n           \"email\": \"byron.fields@reqres.in\",\n           \"first_name\": \"Byron\",\n           \"last_name\": \"Fields\",\n           \"avatar\": \"https:\/\/reqres.in\/img\/faces\/10-image.jpg\"\n       },\n       {\n           \"id\": 11,\n           \"email\": \"george.edwards@reqres.in\",\n           \"first_name\": \"George\",\n           \"last_name\": \"Edwards\",\n           \"avatar\": \"https:\/\/reqres.in\/img\/faces\/11-image.jpg\"\n       },\n       {\n           \"id\": 12,\n           \"email\": \"rachel.howell@reqres.in\",\n           \"first_name\": \"Rachel\",\n           \"last_name\": \"Howell\",\n           \"avatar\": \"https:\/\/reqres.in\/img\/faces\/12-image.jpg\"\n       }\n   ],\n   \"support\": {\n       \"url\": \"https:\/\/reqres.in\/#support-heading\",\n       \"text\": \"To keep ReqRes free, contributions towards server costs are appreciated!\"\n   }\n\t}","index":5,"text":"match response =="}}],"executorName":"main","line":43,"name":"Verify the response match with expected result","description":"","durationMillis":95.8275,"startTime":1696844044857,"failed":false,"refId":"[3:43]","endTime":1696844044956,"exampleIndex":-1},{"sectionIndex":3,"stepResults":[{"result":{"nanos":203000,"millis":0.203,"status":"passed"},"step":{"background":true,"line":4,"prefix":"Given","index":0,"text":"url \"https:\/\/reqres.in\""},"stepLog":"16:34:04.967 karate.env system property was: null \n"},{"result":{"nanos":495800,"millis":0.4958,"status":"passed"},"step":{"background":true,"line":5,"prefix":"And","index":1,"text":"print 'url is correct'"},"stepLog":"16:34:04.968 [print] url is correct \n"},{"result":{"nanos":128500,"millis":0.1285,"status":"passed"},"step":{"line":109,"prefix":"Given","index":0,"text":"path '\/api\/users'"}},{"result":{"nanos":259300,"millis":0.2593,"status":"passed"},"step":{"line":110,"prefix":"And","index":1,"text":"param page = 2"}},{"result":{"nanos":76792000,"millis":76.792,"status":"passed"},"step":{"line":111,"prefix":"When","index":2,"text":"method get"},"stepLog":"16:34:04.970 request:\n1 > GET https:\/\/reqres.in\/api\/users?page=2\n1 > Host: reqres.in\n1 > Connection: Keep-Alive\n1 > User-Agent: Apache-HttpClient\/4.5.14 (Java\/17.0.8.1)\n1 > Accept-Encoding: gzip,deflate\n\n\n16:34:05.043 response time in milliseconds: 72\n1 < 200\n1 < Date: Mon, 09 Oct 2023 09:34:03 GMT\n1 < Content-Type: application\/json; charset=utf-8\n1 < Transfer-Encoding: chunked\n1 < Connection: keep-alive\n1 < X-Powered-By: Express\n1 < Access-Control-Allow-Origin: *\n1 < Etag: W\/\"406-ut0vzoCuidvyMf8arZpMpJ6ZRDw\"\n1 < Via: 1.1 vegur\n1 < Cache-Control: max-age=14400\n1 < CF-Cache-Status: HIT\n1 < Age: 5020\n1 < Report-To: {\"endpoints\":[{\"url\":\"https:\\\/\\\/a.nel.cloudflare.com\\\/report\\\/v3?s=6HyskaYLG7jjIurIyAJc18z%2FY2oLCIG8gTGYOBkk0zCaXgnUAs1lhizQluEqj7KvkOVnnI3T2XlEk6T7uwzV5HBQvW2qr%2F%2FcMTERClLLmZ6yDkpoXqIV50TM6g%3D%3D\"}],\"group\":\"cf-nel\",\"max_age\":604800}\n1 < NEL: {\"success_fraction\":0,\"report_to\":\"cf-nel\",\"max_age\":604800}\n1 < Vary: Accept-Encoding\n1 < Server: cloudflare\n1 < CF-RAY: 8135a02acbeb6027-SIN\n{\"page\":2,\"per_page\":6,\"total\":12,\"total_pages\":2,\"data\":[{\"id\":7,\"email\":\"michael.lawson@reqres.in\",\"first_name\":\"Michael\",\"last_name\":\"Lawson\",\"avatar\":\"https:\/\/reqres.in\/img\/faces\/7-image.jpg\"},{\"id\":8,\"email\":\"lindsay.ferguson@reqres.in\",\"first_name\":\"Lindsay\",\"last_name\":\"Ferguson\",\"avatar\":\"https:\/\/reqres.in\/img\/faces\/8-image.jpg\"},{\"id\":9,\"email\":\"tobias.funke@reqres.in\",\"first_name\":\"Tobias\",\"last_name\":\"Funke\",\"avatar\":\"https:\/\/reqres.in\/img\/faces\/9-image.jpg\"},{\"id\":10,\"email\":\"byron.fields@reqres.in\",\"first_name\":\"Byron\",\"last_name\":\"Fields\",\"avatar\":\"https:\/\/reqres.in\/img\/faces\/10-image.jpg\"},{\"id\":11,\"email\":\"george.edwards@reqres.in\",\"first_name\":\"George\",\"last_name\":\"Edwards\",\"avatar\":\"https:\/\/reqres.in\/img\/faces\/11-image.jpg\"},{\"id\":12,\"email\":\"rachel.howell@reqres.in\",\"first_name\":\"Rachel\",\"last_name\":\"Howell\",\"avatar\":\"https:\/\/reqres.in\/img\/faces\/12-image.jpg\"}],\"support\":{\"url\":\"https:\/\/reqres.in\/#support-heading\",\"text\":\"To keep ReqRes free, contributions towards server costs are appreciated!\"}}\n\n"},{"result":{"nanos":13700,"millis":0.0137,"status":"passed"},"step":{"line":112,"prefix":"Then","index":3,"text":"status 200"}},{"result":{"nanos":1383500,"millis":1.3835,"status":"passed"},"step":{"line":113,"prefix":"And","index":4,"text":"def responseData = response.data"}},{"result":{"nanos":2139200,"millis":2.1392,"status":"passed"},"step":{"line":114,"prefix":"And","index":5,"text":"print responseData"},"stepLog":"16:34:05.049 [print] [\n  {\n    \"id\": 7,\n    \"email\": \"michael.lawson@reqres.in\",\n    \"first_name\": \"Michael\",\n    \"last_name\": \"Lawson\",\n    \"avatar\": \"https:\/\/reqres.in\/img\/faces\/7-image.jpg\"\n  },\n  {\n    \"id\": 8,\n    \"email\": \"lindsay.ferguson@reqres.in\",\n    \"first_name\": \"Lindsay\",\n    \"last_name\": \"Ferguson\",\n    \"avatar\": \"https:\/\/reqres.in\/img\/faces\/8-image.jpg\"\n  },\n  {\n    \"id\": 9,\n    \"email\": \"tobias.funke@reqres.in\",\n    \"first_name\": \"Tobias\",\n    \"last_name\": \"Funke\",\n    \"avatar\": \"https:\/\/reqres.in\/img\/faces\/9-image.jpg\"\n  },\n  {\n    \"id\": 10,\n    \"email\": \"byron.fields@reqres.in\",\n    \"first_name\": \"Byron\",\n    \"last_name\": \"Fields\",\n    \"avatar\": \"https:\/\/reqres.in\/img\/faces\/10-image.jpg\"\n  },\n  {\n    \"id\": 11,\n    \"email\": \"george.edwards@reqres.in\",\n    \"first_name\": \"George\",\n    \"last_name\": \"Edwards\",\n    \"avatar\": \"https:\/\/reqres.in\/img\/faces\/11-image.jpg\"\n  },\n  {\n    \"id\": 12,\n    \"email\": \"rachel.howell@reqres.in\",\n    \"first_name\": \"Rachel\",\n    \"last_name\": \"Howell\",\n    \"avatar\": \"https:\/\/reqres.in\/img\/faces\/12-image.jpg\"\n  }\n]\n \n"},{"result":{"nanos":1838300,"millis":1.8383,"status":"passed"},"step":{"line":115,"prefix":"And","index":6,"text":"def id = responseData[0].id"}},{"result":{"nanos":1097300,"millis":1.0973,"status":"passed"},"step":{"line":116,"prefix":"And","index":7,"text":"print id"},"stepLog":"16:34:05.052 [print] 7 \n"},{"result":{"nanos":1142700,"millis":1.1427,"status":"passed"},"step":{"line":117,"prefix":"And","index":8,"text":"match id == 7"}},{"result":{"nanos":4507200,"millis":4.5072,"status":"passed"},"step":{"line":118,"prefix":"And","index":9,"text":"def responseDataFirstName = response.data.first_name"}},{"result":{"nanos":871000,"millis":0.871,"status":"passed"},"step":{"line":119,"prefix":"And","index":10,"text":"def firstName = responseData[0].first_name"}},{"result":{"nanos":1023500,"millis":1.0235,"status":"passed"},"step":{"line":120,"prefix":"And","index":11,"text":"print firstName"},"stepLog":"16:34:05.060 [print] Michael \n"},{"result":{"nanos":4980900,"millis":4.9809,"status":"passed"},"step":{"line":121,"prefix":"Then","index":12,"text":"match firstName == \"Michael\""}}],"executorName":"main","line":108,"name":"Verify the specific response correct","description":"","durationMillis":96.8759,"startTime":1696844044966,"failed":false,"refId":"[4:108]","endTime":1696844045065,"exampleIndex":-1}],"callDepth":0,"name":"Get List Users","description":"","resultDate":"2023-10-09 04:34:05 PM","durationMillis":1010.2055,"passedCount":4}